Data-wrangling on R
…
---

Let us consider the dataset `data_work` previously introduced (it is simply the well know `iris` dataset turned into tibble). 

```
## # A tibble: 150 x 5
##   Sepal.Length Sepal.Width Petal.Length Petal.Width Species
##          <dbl>       <dbl>        <dbl>       <dbl> <chr>  
## 1          5.1         3.5          1.4         0.2 setosa 
## 2          4.9         3            1.4         0.2 setosa 
## 3          4.7         3.2          1.3         0.2 setosa 
## 4          4.6         3.1          1.5         0.2 setosa 
## 5          5           3.6          1.4         0.2 setosa 
## 6          5.4         3.9          1.7         0.4 setosa 
## # ... with 144 more rows
```
…
## `dplyr::select`

In a data analysis, we could be interested in:

* *select* some columns, for instance:
  + *select* the 3rd column

--

```r
select(data_work, `3`)
```

```
## # A tibble: 150 x 1
##   Petal.Length
##          <dbl>
## 1          1.4
## 2          1.4
## 3          1.3
## 4          1.5
## 5          1.4
## 6          1.7
## # ... with 144 more rows
```
…
In a data analysis, we could be interested in:

* *select* some columns, for instance:
  + *select* column Sepal.Width

--

```r
select(data_work, `Sepal.Width`) 
# Note the absence of " around Sepal .Width
```

```
## # A tibble: 150 x 1
##   Sepal.Width
##         <dbl>
## 1         3.5
## 2         3  
## 3         3.2
## 4         3.1
## 5         3.6
## 6         3.9
## # ... with 144 more rows
```
…
## `dplyr::select`

In a data analysis, we could be interested in:

* *select* some columns, for instance:
  + *select*  all columns except Sepal.width and Sepal.Length)
  
--

```r
select(data_work, `- c(Sepal.Width, Sepal.Length)`)
```

```
## # A tibble: 150 x 3
##   Petal.Length Petal.Width Species
##          <dbl>       <dbl> <chr>  
## 1          1.4         0.2 setosa 
## 2          1.4         0.2 setosa 
## 3          1.3         0.2 setosa 
## 4          1.5         0.2 setosa 
## 5          1.4         0.2 setosa 
## 6          1.7         0.4 setosa 
## # ... with 144 more rows
```
…
## `dplyr::filter`

In a data analysis, we could be interested in:

* *filter* rows based on the values of some columns (predicates), for instance:
  + *filter* rows of `data_work` with individuals having their length of Sepal greater than 4

--

```r
filter(data_work, `Sepal.Length > 4`)
```

```
## # A tibble: 150 x 5
##   Sepal.Length Sepal.Width Petal.Length Petal.Width Species
##          <dbl>       <dbl>        <dbl>       <dbl> <chr>  
## 1          5.1         3.5          1.4         0.2 setosa 
## 2          4.9         3            1.4         0.2 setosa 
## 3          4.7         3.2          1.3         0.2 setosa 
## 4          4.6         3.1          1.5         0.2 setosa 
## 5          5           3.6          1.4         0.2 setosa 
## 6          5.4         3.9          1.7         0.4 setosa 
## # ... with 144 more rows
```
…
## `dplyr::filter`

In a data analysis, we could be interested in:

* *filter* rows based on the values of some columns (predicates), for instance:
  + *filter* rows of `data_work` of species "virginica"

--

```r
filter(data_work, `Species == "virginica"`)
```

```
## # A tibble: 50 x 5
##   Sepal.Length Sepal.Width Petal.Length Petal.Width Species  
##          <dbl>       <dbl>        <dbl>       <dbl> <chr>    
## 1          6.3         3.3          6           2.5 virginica
## 2          5.8         2.7          5.1         1.9 virginica
## 3          7.1         3            5.9         2.1 virginica
## 4          6.3         2.9          5.6         1.8 virginica
## 5          6.5         3            5.8         2.2 virginica
## 6          7.6         3            6.6         2.1 virginica
## # ... with 44 more rows
```
…
## `dplyr::filter`
  
You can put multiple conditions, for instance:

* *filter* rows based on the values of some columns (predicates), for instance:
  + *filter* rows of `data_work` of species "virginica" and with their Width of Petal smaller than 2

--

```r
filter(data_work, `Species == "virginica", Petal.Width < 2`)
```

```
## # A tibble: 21 x 5
##   Sepal.Length Sepal.Width Petal.Length Petal.Width Species  
##          <dbl>       <dbl>        <dbl>       <dbl> <chr>    
## 1          5.8         2.7          5.1         1.9 virginica
## 2          6.3         2.9          5.6         1.8 virginica
## 3          4.9         2.5          4.5         1.7 virginica
## 4          7.3         2.9          6.3         1.8 virginica
## 5          6.7         2.5          5.8         1.8 virginica
## 6          6.4         2.7          5.3         1.9 virginica
## # ... with 15 more rows
```
…
`mutate` is the verb used to create new columns.

--

For instance, suppose we want to compute the sum of the lengths of the Sepal and the Petal in our dataset.

--

```r
mutate(data_work, sum_lengths = Sepal.Length + Petal.Length)
```

```
## # A tibble: 150 x 6
##   Sepal.Length Sepal.Width Petal.Length Petal.Width Species sum_lengths
##          <dbl>       <dbl>        <dbl>       <dbl> <chr>         <dbl>
## 1          5.1         3.5          1.4         0.2 setosa          6.5
## 2          4.9         3            1.4         0.2 setosa          6.3
## 3          4.7         3.2          1.3         0.2 setosa          6  
## 4          4.6         3.1          1.5         0.2 setosa          6.1
## 5          5           3.6          1.4         0.2 setosa          6.4
## 6          5.4         3.9          1.7         0.4 setosa          7.1
## # ... with 144 more rows
```

---

## `dplyr`: other useful functions

.small[`dplyr` provides many useful functions. You can guess their purposes just by their name:]

--

* `arrange`: `arrange(data_work, Species, desc(Petal.Length))`

--

```
## # A tibble: 150 x 5
##   Sepal.Length Sepal.Width Petal.Length Petal.Width Species
##          <dbl>       <dbl>        <dbl>       <dbl> <chr>  
## 1          4.8         3.4          1.9         0.2 setosa 
## 2          5.1         3.8          1.9         0.4 setosa 
## 3          5.4         3.9          1.7         0.4 setosa 
## 4          5.7         3.8          1.7         0.3 setosa 
## 5          5.4         3.4          1.7         0.2 setosa 
## 6          5.1         3.3          1.7         0.5 setosa 
## # ... with 144 more rows
```
…
---

## `dplyr`: other useful functions

.small[`dplyr` provides many useful functions. You can guess their purposes just by their name:]

--

* `rename`: `rename(data_work, S.Width = Sepal.Width, S.Length = Sepal.Length)`

--

```
## # A tibble: 150 x 5
##   S.Length S.Width Petal.Length Petal.Width Species
##      <dbl>   <dbl>        <dbl>       <dbl> <chr>  
## 1      5.1     3.5          1.4         0.2 setosa 
## 2      4.9     3            1.4         0.2 setosa 
## 3      4.7     3.2          1.3         0.2 setosa 
## 4      4.6     3.1          1.5         0.2 setosa 
## 5      5       3.6          1.4         0.2 setosa 
## 6      5.4     3.9          1.7         0.4 setosa 
## # ... with 144 more rows
```
…
## `dplyr::group_by`

--

```r
data_work_by_species <- data_work %>%
  `group_by`(Species) 
# Equivalent to data_work_by_species <- group_by(data_work, Species)

data_work_by_species
```

```
## # A tibble: 150 x 5
## # Groups:   Species [3]
##   Sepal.Length Sepal.Width Petal.Length Petal.Width Species
##          <dbl>       <dbl>        <dbl>       <dbl> <chr>  
## 1          5.1         3.5          1.4         0.2 setosa 
## 2          4.9         3            1.4         0.2 setosa 
## 3          4.7         3.2          1.3         0.2 setosa 
## 4          4.6         3.1          1.5         0.2 setosa 
## 5          5           3.6          1.4         0.2 setosa 
## 6          5.4         3.9          1.7         0.4 setosa 
## # ... with 144 more rows
```
…
Note the `# Groups:   Species [3]`. It means that operations on this dataset will be done for each group.

---

For example, suppose we want to compute the median of the width of the Sepal for each species.

```r
data_work_by_species %>%
  mutate(median_sepal_width = median(Sepal.Width)) %>% 
  select(starts_with("S"), median_sepal_width)
```

```
## # A tibble: 150 x 4
## # Groups:   Species [3]
##   Sepal.Length Sepal.Width Species median_sepal_width
##          <dbl>       <dbl> <chr>                <dbl>
## 1          5.1         3.5 setosa                 3.4
## 2          4.9         3   setosa                 3.4
## 3          4.7         3.2 setosa                 3.4
## 4          4.6         3.1 setosa                 3.4
## 5          5           3.6 setosa                 3.4
## 6          5.4         3.9 setosa                 3.4
## # ... with 144 more rows
```
…
---

If you want to take out the grouped structure of your tibble, you just have to use the function `ungroup`

```r
data_work_by_species %>% ungroup
```

```
## # A tibble: 150 x 5
##   Sepal.Length Sepal.Width Petal.Length Petal.Width Species
##          <dbl>       <dbl>        <dbl>       <dbl> <chr>  
## 1          5.1         3.5          1.4         0.2 setosa 
## 2          4.9         3            1.4         0.2 setosa 
## 3          4.7         3.2          1.3         0.2 setosa 
## 4          4.6         3.1          1.5         0.2 setosa 
## 5          5           3.6          1.4         0.2 setosa 
## 6          5.4         3.9          1.7         0.4 setosa 
## # ... with 144 more rows
```
…
--

See `?dplyr::across` for more details and further arguments

---

Combined with the `where` function, it allows to apply a function on specific columns

```r
data_work %>% 
  mutate(across(where(is.character), as.factor)) `# apply function as.factor where the columns have the type character`
```

```
## # A tibble: 150 x 5
##   Sepal.Length Sepal.Width Petal.Length Petal.Width Species
##          <dbl>       <dbl>        <dbl>       <dbl> <fct>  
## 1          5.1         3.5          1.4         0.2 setosa 
## 2          4.9         3            1.4         0.2 setosa 
## 3          4.7         3.2          1.3         0.2 setosa 
## 4          4.6         3.1          1.5         0.2 setosa 
## 5          5           3.6          1.4         0.2 setosa 
## 6          5.4         3.9          1.7         0.4 setosa 
## # ... with 144 more rows
```

---

You can specify the name and a specific functions using the `~.x` syntax. `.names` is used to specify the names of the new columns. It has a specific syntax (see `?dplyr::across`).

--

```r
data_work %>% 
  mutate(across(where(is.numeric), ~ .x*0.01, .names = "{.col}_in_meters" )) `# apply personal function where the columns have the type numeric`
```

```
## # A tibble: 150 x 9
##   Sepal.Length Sepal.Width Petal.Length Petal.Width Species Sepal.Length_in_met~
##          <dbl>       <dbl>        <dbl>       <dbl> <chr>                  <dbl>
## 1          5.1         3.5          1.4         0.2 setosa                 0.051
## 2          4.9         3            1.4         0.2 setosa                 0.049
## 3          4.7         3.2          1.3         0.2 setosa                 0.047
## 4          4.6         3.1          1.5         0.2 setosa                 0.046
## 5          5           3.6          1.4         0.2 setosa                 0.05 
## 6          5.4         3.9          1.7         0.4 setosa                 0.054
## # ... with 144 more rows, and 3 more variables: Sepal.Width_in_meters <dbl>,
## #   Petal.Length_in_meters <dbl>, Petal.Width_in_meters <dbl>
```
…
